BOT9527: [70, 25, 30, 60] = ISTP
Anonymous: [100, 55, 40, 70] = INTP
M: [50, 20, 40, 30] = XSTJ
streptavidin: [89, 45, 40, 25] = ISTJ
Izzy: [40, 55, 40, 25] = ENTJ
xXdankmemesG696969: [80, 70, 45, 35] = INTJ
Bird: [90, 35, 25, 30] = ISTJ
Jimmy Jackson: [90, 55, 30, 25] = INTJ
Chason Young: [30, 30, 70, 55] = ESFP
SamVimes: [60, 30, 55, 40] = ISFJ
Martin: [80, 35, 55, 40] = ISFJ
Cynthia: [60, 70, 30, 45] = INTJ
Tyler: [90, 15, 40, 45] = ISTJ
Connor: [10, 70, 65, 40] = ENFJ
brendan: [100, 35, 45, 45] = ISTJ
Eric: [50, 45, 75, 55] = XSFP
Henry Wotton: [90, 44, 40, 45] = ISTJ
Livia: [70, 35, 35, 40] = ISTJ
Logan H: [30, 40, 50, 50] = ESXX
Joe: [70, 35, 65, 55] = ISFP
anon: [100, 60, 50, 55] = INXP
Xaq: [50, 75, 45, 55] = XNTP
YL: [50, 58, 60, 58] = XNFP
OD: [90, 40, 40, 35] = ISTJ
Ruary Thompson: [10, 25, 50, 40] = ESXJ
Nick: [90, 25, 40, 40] = ISTJ
anonymous: [40, 65, 55, 45] = ENFJ
Izzy's Igloo of Imagination: [10, 80, 60, 50] = ENFX
Bobby Drop Table Students: [90, 40, 15, 65] = ISTP
ANONYMOUS: [100, 80, 0, 20] = INTJ
anteater: [90, 55, 40, 40] = INTJ
Kpn: [30, 47, 65, 70] = ESFP
162982110142016: [90, 35, 25, 30] = ISTJ
lalala: [70, 15, 15, 15] = ISTJ
Tiny Riiiiiiick!: [70, 26, 45, 20] = ISTJ
hi im gosu: [100, 65, 40, 65] = INTP
Farrah: [50, 35, 80, 42] = XSFJ
Elizabeth: [20, 35, 85, 75] = ESFP
lsy: [90, 55, 60, 45] = INFJ
Glockenspiel: [100, 21, 35, 55] = ISTP
SHODAN: [20, 40, 10, 45] = ESTJ
LJM: [60, 50, 60, 50] = IXFX
MaddAddam: [90, 70, 75, 40] = INFJ
Person: [40, 65, 55, 85] = ENFP
Jierui Wang: [30, 70, 55, 50] = ENFX
Virginia: [70, 35, 50, 50] = ISXX
Triangle: [20, 55, 60, 40] = ENFJ
Number1TA: [90, 55, 50, 40] = INXJ
Hakunamatata: [50, 35, 75, 70] = XSFP
glenl: [90, 35, 55, 35] = ISFJ
David: [100, 90, 55, 70] = INFP
Tommy: [60, 30, 20, 15] = ISTJ
checkmated: [60, 50, 35, 30] = IXTJ
Pranav Argade: [20, 20, 40, 25] = ESTJ
MP: [10, 50, 55, 25] = EXFJ
Mary Mattsen: [70, 80, 55, 85] = INFP
sloth: [50, 25, 35, 50] = XSTX
Ewinc Shen: [40, 60, 40, 50] = ENTX
Dawa: [40, 35, 60, 30] = ESFJ
Aditya: [0, 65, 85, 55] = ENFP
pixelated: [100, 30, 30, 15] = ISTJ
Plato: [80, 75, 15, 50] = INTX
Brandon: [90, 45, 40, 45] = ISTJ
Doscientos: [80, 30, 25, 30] = ISTJ
BigHero: [40, 42, 35, 50] = ESTX
Kylie: [50, 10, 75, 20] = XSFJ
Rachel Zhang: [90, 50, 25, 30] = IXTJ
Amol: [50, 70, 25, 70] = XNTP
Hello Java: [50, 20, 40, 30] = XSTJ
U. N. Owen: [80, 55, 5, 35] = INTJ
Cheng: [70, 65, 42, 40] = INTJ
Keen: [70, 45, 45, 40] = ISTJ
Imran: [90, 25, 65, 25] = ISFJ
The C: [60, 20, 11, 15] = ISTJ
Frank: [40, 31, 12, 37] = ESTJ
orichrome: [100, 40, 20, 15] = ISTJ
ArmArm: [80, 50, 60, 20] = IXFJ
Innogen: [80, 26, 58, 35] = ISFJ
Audric Synclair: [100, 85, 35, 50] = INTX
Alex Ting: [100, 45, 70, 80] = ISFP
Sophia: [63, 40, 81, 47] = ISFJ
Jarvis Allain: [100, 75, 40, 50] = INTX
Rue: [30, 41, 80, 30] = ESFJ
satvik: [100, 40, 65, 45] = ISFJ
Furry Panda: [100, 35, 20, 20] = ISTJ
Atlas: [90, 53, 10, 10] = INTJ
dinkle berg: [30, 50, 10, 60] = EXTP
alexd: [100, 25, 50, 15] = ISXJ
Connor: [50, 60, 20, 20] = XNTJ
Jack: [60, 30, 30, 50] = ISTX
me: [90, 40, 70, 40] = ISFJ
ben trowbridge: [80, 45, 60, 30] = ISFJ
Gautham: [10, 50, 65, 40] = EXFJ
